;HEADER
;Start_gcode
G21                     ; Set to metric [change to G20 if you want Imperial]
G90                     ; Force coordinates to be absolute relative to the origin
G28                     ; Home X/Y/Z axis
M117 Printing...
;ENDHEADER
;Layer #
G0 X50.00 Y650.00 Z90.00 F2500
M400
M280 P1 S0
G1 X50.00 Y650.00 Z35.00 F3000
G1 X50.00 Y50.00 Z35.00 F3000
G1 X67.00 Y50.00 Z35.00 F3000
G1 X67.00 Y650.00 Z35.00 F3000
G1 X84.00 Y650.00 Z35.00 F3000
G1 X84.00 Y50.00 Z35.00 F3000
G1 X101.00 Y50.00 Z35.00 F3000
G1 X101.00 Y650.00 Z35.00 F3000
G1 X118.00 Y650.00 Z35.00 F3000
G1 X118.00 Y50.00 Z35.00 F3000
G1 X135.00 Y50.00 Z35.00 F3000
G1 X135.00 Y650.00 Z35.00 F3000
G1 X152.00 Y650.00 Z35.00 F3000
G1 X152.00 Y50.00 Z35.00 F3000
G1 X169.00 Y50.00 Z35.00 F3000
G1 X169.00 Y650.00 Z35.00 F3000
G1 X186.00 Y650.00 Z35.00 F3000
G1 X186.00 Y50.00 Z35.00 F3000
G1 X203.00 Y50.00 Z35.00 F3000
G1 X203.00 Y650.00 Z35.00 F3000
G1 X220.00 Y650.00 Z35.00 F3000
G1 X220.00 Y50.00 Z35.00 F3000
G1 X237.00 Y50.00 Z35.00 F3000
G1 X237.00 Y650.00 Z35.00 F3000
G1 X254.00 Y650.00 Z35.00 F3000
G1 X254.00 Y50.00 Z35.00 F3000
G1 X271.00 Y50.00 Z35.00 F3000
G1 X271.00 Y650.00 Z35.00 F3000
G1 X288.00 Y650.00 Z35.00 F3000
G1 X288.00 Y50.00 Z35.00 F3000
G1 X305.00 Y50.00 Z35.00 F3000
G1 X305.00 Y650.00 Z35.00 F3000
G1 X322.00 Y650.00 Z35.00 F3000
G1 X322.00 Y50.00 Z35.00 F3000
G1 X339.00 Y50.00 Z35.00 F3000
G1 X339.00 Y650.00 Z35.00 F3000
G1 X356.00 Y650.00 Z35.00 F3000
G1 X356.00 Y50.00 Z35.00 F3000
G1 X373.00 Y50.00 Z35.00 F3000
G1 X373.00 Y650.00 Z35.00 F3000
G1 X390.00 Y650.00 Z35.00 F3000
G1 X390.00 Y50.00 Z35.00 F3000
G1 X407.00 Y50.00 Z35.00 F3000
G1 X407.00 Y650.00 Z35.00 F3000
G1 X424.00 Y650.00 Z35.00 F3000
G1 X424.00 Y50.00 Z35.00 F3000
G1 X441.00 Y50.00 Z35.00 F3000
G1 X441.00 Y650.00 Z35.00 F3000
G1 X458.00 Y650.00 Z35.00 F3000
G1 X458.00 Y50.00 Z35.00 F3000
G1 X475.00 Y50.00 Z35.00 F3000
G1 X475.00 Y650.00 Z35.00 F3000
G1 X492.00 Y650.00 Z35.00 F3000
G1 X492.00 Y50.00 Z35.00 F3000
G1 X509.00 Y50.00 Z35.00 F3000
G1 X509.00 Y650.00 Z35.00 F3000
G1 X526.00 Y650.00 Z35.00 F3000
G1 X526.00 Y50.00 Z35.00 F3000
G1 X543.00 Y50.00 Z35.00 F3000
G1 X543.00 Y650.00 Z35.00 F3000
G1 X560.00 Y650.00 Z35.00 F3000
G1 X560.00 Y50.00 Z35.00 F3000
G1 X577.00 Y50.00 Z35.00 F3000
G1 X577.00 Y650.00 Z35.00 F3000
G1 X594.00 Y650.00 Z35.00 F3000
G1 X594.00 Y50.00 Z35.00 F3000
G1 X611.00 Y50.00 Z35.00 F3000
G1 X611.00 Y650.00 Z35.00 F3000
G1 X628.00 Y650.00 Z35.00 F3000
G1 X628.00 Y50.00 Z35.00 F3000
G1 X645.00 Y50.00 Z35.00 F3000
G1 X645.00 Y650.00 Z35.00 F3000
G1 X662.00 Y650.00 Z35.00 F3000
G1 X662.00 Y50.00 Z35.00 F3000
G0 X662.00 Y50.00 Z90.00 F2500
M400
M280 P1 S90
;FOOTER
; end_gcode
G28 X Y
G0 Z100 				; HOME
G90                             ; absolute positioning
;ENDFOOTER
